211-Discussion
…
What if I want to find all cases heard by judges appointed by Bush
43?

df %>% filter(jpresident == "Bush43")

## # A tibble: 17,622 × 54
##    file     OUTCOME jrepublican jpresident jid_anon jyears APPEAL judge_replaced
##    <chr>    <fct>         <dbl> <chr>         <dbl>  <dbl>  <dbl>          <dbl>
##  1 /docket… jud_mo…           1 Bush43        90131      1      0              0
##  2 /docket… dism_v…           1 Bush43        90131      0      0              0
##  3 /docket… dism_p…           1 Bush43        90131      0      0              0
##  4 /docket… dism_j…           1 Bush43        90131      0      0              0
##  5 /docket… dism_o…           1 Bush43        90159      0      0              0
##  6 /docket… dism_p…           1 Bush43        90159      0      0              0
##  7 /docket… dism_o…           1 Bush43        90159      0      0              0
##  8 /docket… dism_o…           1 Bush43        90159      0      0              0
##  9 /docket… dism_o…           1 Bush43        90131      0      1              0
## 10 /docket… dism_o…           1 Bush43        90159      0      1              1
## # ℹ 17,612 more rows
## # ℹ 46 more variables: jsenior <dbl>, court <chr>, division <dbl>, YEAR <dbl>,
## #   QUARTER <chr>, nature_of_suit <dbl>, SECTION <chr>, ORIGIN <dbl>,
## #   JURIS <chr>, jury_demand <chr>, PROSE <dbl>, COUNTY <chr>, pla_count <dbl>,
## #   pla_count_prose <dbl>, pla_count_anonymous <dbl>, pla_count_IND <dbl>,
## #   pla_count_BUS <dbl>, pla_count_GOV <dbl>, pla_count_LAW <dbl>,
## #   pla_count_OTH <dbl>, pla_count_repeat <dbl>, pla_acount <dbl>, …

The reason why we need to add quotation mark when setting the
condition in the filter function is that both of the
file and jpresident variables are coded in
character type (categorical) in R. If we filter our cases based on
whether the judge of the case is assigned by a Republican president
(when jrepublican == 1), we don’t have to add quotation
mark in the condition as this variable is coded as the type of double
(dbl) in R, which is a class of numeric.

df %>% filter(jrepublican == 1)

## # A tibble: 42,679 × 54
##    file     OUTCOME jrepublican jpresident jid_anon jyears APPEAL judge_replaced
##    <chr>    <fct>         <dbl> <chr>         <dbl>  <dbl>  <dbl>          <dbl>
##  1 /docket… jud_de…           1 Reagan        90059     13      0              0
##  2 /docket… dism_o…           1 Reagan        90048      9      0              0
##  3 /docket… dism_p…           1 Reagan        90012     11      0              0
##  4 /docket… dism_o…           1 Bush41        90016      3      0              0
##  5 /docket… dism_v…           1 Reagan        90096     10      0              0
##  6 /docket… dism_v…           1 Reagan        90158     11      0              0
##  7 /docket… settle…           1 Reagan        90158     11      0              0
##  8 /docket… settle…           1 Ford          90218     19      0              0
##  9 /docket… jud_mo…           1 Nixon         90148     24      0              0
## 10 /docket… dism_j…           1 Reagan        90005     13      0              0
## # ℹ 42,669 more rows
## # ℹ 46 more variables: jsenior <dbl>, court <chr>, division <dbl>, YEAR <dbl>,
## #   QUARTER <chr>, nature_of_suit <dbl>, SECTION <chr>, ORIGIN <dbl>,
## #   JURIS <chr>, jury_demand <chr>, PROSE <dbl>, COUNTY <chr>, pla_count <dbl>,
## #   pla_count_prose <dbl>, pla_count_anonymous <dbl>, pla_count_IND <dbl>,
## #   pla_count_BUS <dbl>, pla_count_GOV <dbl>, pla_count_LAW <dbl>,
## #   pla_count_OTH <dbl>, pla_count_repeat <dbl>, pla_acount <dbl>, …
…
